<?xml version="1.0" encoding="UTF-8" standalone="no"?>
<!-- Created with Inkscape (http://www.inkscape.org/) -->

<svg
   xmlns:dc="http://purl.org/dc/elements/1.1/"
   xmlns:cc="http://creativecommons.org/ns#"
   xmlns:rdf="http://www.w3.org/1999/02/22-rdf-syntax-ns#"
   xmlns:svg="http://www.w3.org/2000/svg"
   xmlns="http://www.w3.org/2000/svg"
   xmlns:sodipodi="http://sodipodi.sourceforge.net/DTD/sodipodi-0.dtd"
   xmlns:inkscape="http://www.inkscape.org/namespaces/inkscape"
   id="svg2"
   version="1.1"
   inkscape:version="0.47 r22583"
   width="400"
   height="231"
   sodipodi:docname="Netzwerkanalyse - Kopie.svg">
  <metadata
     id="metadata8">
    <rdf:RDF>
      <cc:Work
         rdf:about="">
        <dc:format>image/svg+xml</dc:format>
        <dc:type
           rdf:resource="http://purl.org/dc/dcmitype/StillImage" />
        <dc:title />
      </cc:Work>
    </rdf:RDF>
  </metadata>
  <defs
     id="defs6">
    <inkscape:perspective
       sodipodi:type="inkscape:persp3d"
       inkscape:vp_x="0 : 115.5 : 1"
       inkscape:vp_y="0 : 1000 : 0"
       inkscape:vp_z="400 : 115.5 : 1"
       inkscape:persp3d-origin="200 : 77 : 1"
       id="perspective102" />
    <marker
       inkscape:stockid="Arrow2Mend"
       orient="auto"
       refY="0.0"
       refX="0.0"
       id="Arrow2Mend"
       style="overflow:visible;">
      <path
         id="path3673"
         style="font-size:12.0;fill-rule:evenodd;stroke-width:0.62500000;stroke-linejoin:round;"
         d="M 8.7185878,4.0337352 L -2.2072895,0.016013256 L 8.7185884,-4.0017078 C 6.9730900,-1.6296469 6.9831476,1.6157441 8.7185878,4.0337352 z "
         transform="scale(0.6) rotate(180) translate(0,0)" />
    </marker>
  </defs>
  <sodipodi:namedview
     pagecolor="#ffffff"
     bordercolor="#666666"
     borderopacity="1"
     objecttolerance="10"
     gridtolerance="10"
     guidetolerance="10"
     inkscape:pageopacity="0"
     inkscape:pageshadow="2"
     inkscape:window-width="1600"
     inkscape:window-height="838"
     id="namedview4"
     showgrid="false"
     inkscape:zoom="2.5584416"
     inkscape:cx="135.11675"
     inkscape:cy="115.5"
     inkscape:window-x="-8"
     inkscape:window-y="-8"
     inkscape:window-maximized="1"
     inkscape:current-layer="svg2"
     showguides="true"
     inkscape:guide-bbox="true">
    <sodipodi:guide
       orientation="1,0"
       position="50.871571,146.18267"
       id="guide3614" />
    <sodipodi:guide
       orientation="1,0"
       position="344.99111,110.5141"
       id="guide3616" />
    <sodipodi:guide
       orientation="1,0"
       position="198.16751,142.27411"
       id="guide3620" />
  </sodipodi:namedview>
  <path
     sodipodi:type="arc"
     style="fill:#ffffff;fill-opacity:1;stroke:#000000;stroke-width:3.29119849;stroke-linecap:butt;stroke-linejoin:miter;stroke-miterlimit:4;stroke-opacity:1;stroke-dasharray:none;stroke-dashoffset:0"
     id="path3598"
     sodipodi:cx="-115.37082"
     sodipodi:cy="56.602253"
     sodipodi:rx="24.683989"
     sodipodi:ry="24.683989"
     d="m -90.686831,56.602253 a 24.683989,24.683989 0 1 1 -49.367979,0 24.683989,24.683989 0 1 1 49.367979,0 z"
     transform="matrix(0.60768137,0,0,0.60768137,121.06146,121.50372)" />
  <path
     transform="matrix(0.60768137,0,0,0.60768137,415.46395,121.50372)"
     d="m -90.686831,56.602253 a 24.683989,24.683989 0 1 1 -49.367979,0 24.683989,24.683989 0 1 1 49.367979,0 z"
     sodipodi:ry="24.683989"
     sodipodi:rx="24.683989"
     sodipodi:cy="56.602253"
     sodipodi:cx="-115.37082"
     id="path3600"
     style="fill:#ffffff;fill-opacity:1;stroke:#000000;stroke-width:3.29119849;stroke-linecap:butt;stroke-linejoin:miter;stroke-miterlimit:4;stroke-opacity:1;stroke-dasharray:none;stroke-dashoffset:0"
     sodipodi:type="arc" />
  <path
     style="fill:none;stroke:#000000;stroke-width:2;stroke-linecap:butt;stroke-linejoin:miter;stroke-miterlimit:4;stroke-opacity:1;stroke-dasharray:none"
     d="m 50.871574,198.84526 0,-158.877866 294.119556,0 0,158.877866 -294.119556,0 z"
     id="path3612"
     sodipodi:nodetypes="ccccc" />
  <rect
     style="fill:#ffffff;fill-opacity:1;stroke:#000000;stroke-width:1.99999988;stroke-linecap:butt;stroke-linejoin:miter;stroke-miterlimit:4;stroke-opacity:1;stroke-dasharray:none;stroke-dashoffset:0"
     id="rect2818"
     width="50"
     height="24"
     x="246.83989"
     y="25.626345" />
  <rect
     y="38.952763"
     x="-120.04346"
     height="24"
     width="50"
     id="rect3592"
     style="fill:#ffffff;fill-opacity:1;stroke:#000000;stroke-width:1.99999988;stroke-linecap:butt;stroke-linejoin:miter;stroke-miterlimit:4;stroke-opacity:1;stroke-dasharray:none;stroke-dashoffset:0"
     transform="matrix(0,-1,1,0,0,0)" />
  <rect
     y="333.35526"
     x="-120.04346"
     height="24"
     width="50"
     id="rect3596"
     style="fill:#ffffff;fill-opacity:1;stroke:#000000;stroke-width:1.99999988;stroke-linecap:butt;stroke-linejoin:miter;stroke-miterlimit:4;stroke-opacity:1;stroke-dasharray:none;stroke-dashoffset:0"
     transform="matrix(0,-1,1,0,0,0)" />
  <path
     sodipodi:nodetypes="ccc"
     id="path3618"
     d="m 198.43501,198.84526 0,-158.877866 0,158.877866 z"
     style="fill:none;stroke:#000000;stroke-width:2;stroke-linecap:butt;stroke-linejoin:miter;stroke-miterlimit:4;stroke-opacity:1;stroke-dasharray:none" />
  <rect
     transform="matrix(0,-1,1,0,0,0)"
     style="fill:#ffffff;fill-opacity:1;stroke:#000000;stroke-width:1.99999988;stroke-linecap:butt;stroke-linejoin:miter;stroke-miterlimit:4;stroke-opacity:1;stroke-dasharray:none;stroke-dashoffset:0"
     id="rect3594"
     width="50"
     height="24"
     x="-140.04346"
     y="186.15401" />
  <path
     sodipodi:type="arc"
     style="fill:#ff0000;fill-opacity:1;stroke:none"
     id="path3622"
     sodipodi:cx="113.35025"
     sodipodi:cy="13.680203"
     sodipodi:rx="3.1269035"
     sodipodi:ry="3.1269035"
     d="m 116.47715,13.680203 a 3.1269035,3.1269035 0 1 1 -6.2538,0 3.1269035,3.1269035 0 1 1 6.2538,0 z"
     transform="matrix(2.398539,0,0,2.398539,-74.098349,7.6050123)" />
  <path
     transform="matrix(2.398539,0,0,2.398539,-73.707486,165.51364)"
     d="m 116.47715,13.680203 a 3.1269035,3.1269035 0 1 1 -6.2538,0 3.1269035,3.1269035 0 1 1 6.2538,0 z"
     sodipodi:ry="3.1269035"
     sodipodi:rx="3.1269035"
     sodipodi:cy="13.680203"
     sodipodi:cx="113.35025"
     id="path3624"
     style="fill:#ff0000;fill-opacity:1;stroke:none"
     sodipodi:type="arc" />
  <text
     xml:space="preserve"
     style="font-size:18px;font-style:normal;font-weight:normal;fill:#ff0000;fill-opacity:1;stroke:none;font-family:DejaVu Sans;-inkscape-font-specification:DejaVu Sans"
     x="189.56853"
     y="30.878172"
     id="text3628"><tspan
       id="tspan3630"
       x="189.56853"
       y="30.878172">1</tspan></text>
  <text
     xml:space="preserve"
     style="font-size:18px;font-style:normal;font-weight:normal;fill:#ff0000;fill-opacity:1;stroke:none;font-family:DejaVu Sans;-inkscape-font-specification:DejaVu Sans"
     x="190.74112"
     y="225.52792"
     id="text3632"><tspan
       id="tspan3634"
       x="190.74112"
       y="225.52792">2</tspan></text>
  <g
     id="g4290">
    <path
       id="rect3636"
       d="M 112.28125 81.375 C 105.51073 81.375 100.0625 86.82323 100.0625 93.59375 L 100.0625 151.15625 C 100.0625 157.92677 105.51073 163.375 112.28125 163.375 L 133.84375 163.375 C 140.61427 163.375 146.0625 157.92677 146.0625 151.15625 L 146.0625 93.59375 C 146.0625 86.82323 140.61427 81.375 133.84375 81.375 L 112.28125 81.375 z "
       style="fill:none;fill-opacity:1;stroke:#37c871;stroke-opacity:1;stroke-width:2;stroke-miterlimit:4;stroke-dasharray:none" />
    <g
       style="fill:#37c871;stroke:none"
       id="g4280">
      <path
         id="path3641"
         d="m 99.0625,103.59375 0,47.5625 2,0 0,-47.5625 -2,0 z m 46,34 0,13.5625 2,0 0,-13.5625 -2,0 z"
         style="font-size:medium;font-style:normal;font-variant:normal;font-weight:normal;font-stretch:normal;text-indent:0;text-align:start;text-decoration:none;line-height:normal;letter-spacing:normal;word-spacing:normal;text-transform:none;direction:ltr;block-progression:tb;writing-mode:lr-tb;text-anchor:start;color:#000000;fill:#37c871;fill-opacity:1;stroke:none;stroke-width:2;marker:none;visibility:visible;display:inline;overflow:visible;enable-background:accumulate;font-family:Bitstream Vera Sans;-inkscape-font-specification:Bitstream Vera Sans" />
      <path
         id="path4286"
         d="m 146.0625,129.59375 -5.95431,-4 5.95431,14 5.95431,-14 -5.95431,4 z"
         style="fill:#37c871;fill-rule:evenodd;stroke:none;stroke-width:0.4pt;marker-start:none" />
      <path
         id="path4288"
         d="m 100.0625,111.59375 5.56345,4 -5.56345,-14 -5.563452,14 5.563452,-4 z"
         style="fill:#37c871;fill-rule:evenodd;stroke:none;stroke-width:0.4pt;marker-start:none" />
    </g>
  </g>
  <g
     id="g4297"
     transform="translate(150,0)">
    <path
       style="fill:none;stroke:#37c871;stroke-width:2;stroke-miterlimit:4;stroke-opacity:1;stroke-dasharray:none"
       d="m 112.28125,81.375 c -6.77052,0 -12.21875,5.44823 -12.21875,12.21875 l 0,57.5625 c 0,6.77052 5.44823,12.21875 12.21875,12.21875 l 21.5625,0 c 6.77052,0 12.21875,-5.44823 12.21875,-12.21875 l 0,-57.5625 c 0,-6.77052 -5.44823,-12.21875 -12.21875,-12.21875 l -21.5625,0 z"
       id="path4299" />
    <g
       id="g4301"
       style="fill:#37c871;stroke:none">
      <path
         style="font-size:medium;font-style:normal;font-variant:normal;font-weight:normal;font-stretch:normal;text-indent:0;text-align:start;text-decoration:none;line-height:normal;letter-spacing:normal;word-spacing:normal;text-transform:none;direction:ltr;block-progression:tb;writing-mode:lr-tb;text-anchor:start;color:#000000;fill:#37c871;fill-opacity:1;stroke:none;stroke-width:2;marker:none;visibility:visible;display:inline;overflow:visible;enable-background:accumulate;font-family:Bitstream Vera Sans;-inkscape-font-specification:Bitstream Vera Sans"
         d="m 99.0625,103.59375 0,47.5625 2,0 0,-47.5625 -2,0 z m 46,34 0,13.5625 2,0 0,-13.5625 -2,0 z"
         id="path4303" />
      <path
         style="fill:#37c871;fill-rule:evenodd;stroke:none;stroke-width:0.4pt;marker-start:none"
         d="m 146.0625,129.59375 -5.56345,-4 5.56345,14 5.56345,-14 -5.56345,4 z"
         id="path4305" />
      <path
         style="fill:#37c871;fill-rule:evenodd;stroke:none;stroke-width:0.4pt;marker-start:none"
         d="m 100.0625,111.59375 5.56345,4 -5.56345,-14 -5.563452,14 5.563452,-4 z"
         id="path4307" />
    </g>
  </g>
  <text
     xml:space="preserve"
     style="font-size:18px;font-style:normal;font-weight:normal;text-align:center;text-anchor:middle;fill:#5fd38d;fill-opacity:1;stroke:none;font-family:DejaVu Sans;-inkscape-font-specification:DejaVu Sans"
     x="123.12183"
     y="125.07614"
     id="text4309"><tspan
       id="tspan4311"
       x="123.12183"
       y="125.07614">M1</tspan></text>
  <text
     id="text4313"
     y="125.07614"
     x="273.12183"
     style="font-size:18px;font-style:normal;font-weight:normal;text-align:center;text-anchor:middle;fill:#5fd38d;fill-opacity:1;stroke:none;font-family:DejaVu Sans;-inkscape-font-specification:DejaVu Sans"
     xml:space="preserve"><tspan
       y="125.07614"
       x="273.12183"
       id="tspan4315">M2</tspan></text>
  <path
     style="fill:none;stroke:#000000;stroke-width:2;stroke-linecap:butt;stroke-linejoin:miter;stroke-miterlimit:4;stroke-opacity:1;stroke-dasharray:none;marker-end:url(#Arrow2Mend)"
     d="m 37.659898,132.50254 c -5.890041,10.20185 -6.999757,32.82529 0,44.94923"
     id="path4317"
     sodipodi:nodetypes="cc" />
  <text
     xml:space="preserve"
     style="font-size:18px;font-style:normal;font-weight:normal;fill:#000000;fill-opacity:1;stroke:none;font-family:DejaVu Sans;-inkscape-font-specification:DejaVu Sans"
     x="0.78172553"
     y="162.20813"
     id="text4703"><tspan
       id="tspan4705"
       x="0.78172553"
       y="162.20813"
       style="font-size:18px">U</tspan><tspan
   style="font-size:14px"
   dy="5"
   id="tspan44">q1</tspan></text>
  <path
     sodipodi:nodetypes="cc"
     id="path4707"
     d="m 359.61107,132.50254 c 5.89004,10.20185 6.99976,32.82529 0,44.94923"
     style="fill:none;stroke:#000000;stroke-width:2;stroke-linecap:butt;stroke-linejoin:miter;stroke-miterlimit:4;stroke-opacity:1;stroke-dasharray:none;marker-end:url(#Arrow2Mend)" />
  <text
     id="text4709"
     y="162.20813"
     x="368.78174"
     style="font-size:18px;font-style:normal;font-weight:normal;fill:#000000;fill-opacity:1;stroke:none;font-family:DejaVu Sans;-inkscape-font-specification:DejaVu Sans"
     xml:space="preserve"><tspan
       style="font-size:18px"
       y="162.20813"
       x="368.78174"
       id="tspan4711">U</tspan><tspan
   style="font-size:14px"
   dy="5"
   id="tspan49">q2</tspan></text>
  <path
     style="fill:none;stroke:#000000;stroke-width:1.5;stroke-linecap:butt;stroke-linejoin:miter;stroke-miterlimit:4;stroke-opacity:1;stroke-dasharray:none;marker-end:url(#Arrow2Mend)"
     d="m 69.636451,118.82233 c 0,-18.38118 0,-25.333197 0,-44.949232"
     id="path4713"
     sodipodi:nodetypes="cc" />
  <text
     xml:space="preserve"
     style="font-size:18px;font-style:normal;font-weight:normal;fill:#000000;fill-opacity:1;stroke:none;font-family:DejaVu Sans;-inkscape-font-specification:DejaVu Sans"
     x="72.807121"
     y="103.57869"
     id="text4715"><tspan
       id="tspan4717"
       x="72.807121"
       y="103.57869"
       style="font-size:18px">U</tspan><tspan
   style="font-size:14px"
   dy="5"
   id="tspan54">1</tspan></text>
  <path
     sodipodi:nodetypes="cc"
     id="path4719"
     d="m 217.63645,93.873098 c 0,19.616032 0,26.568052 0,44.949232"
     style="fill:none;stroke:#000000;stroke-width:1.5;stroke-linecap:butt;stroke-linejoin:miter;stroke-miterlimit:4;stroke-opacity:1;stroke-dasharray:none;marker-end:url(#Arrow2Mend)" />
  <text
     id="text4721"
     y="123.57869"
     x="220.80713"
     style="font-size:18px;font-style:normal;font-weight:normal;fill:#000000;fill-opacity:1;stroke:none;font-family:DejaVu Sans;-inkscape-font-specification:DejaVu Sans"
     xml:space="preserve"><tspan
       style="font-size:18px"
       y="123.57869"
       x="220.80713"
       id="tspan4723">U</tspan><tspan
   style="font-size:14px"
   dy="5"
   id="tspan59">2</tspan></text>
  <path
     style="fill:none;stroke:#000000;stroke-width:1.5;stroke-linecap:butt;stroke-linejoin:miter;stroke-miterlimit:4;stroke-opacity:1;stroke-dasharray:none;marker-end:url(#Arrow2Mend)"
     d="m 363.63645,118.82233 c 0,-18.38118 0,-25.333197 0,-44.949232"
     id="path4725"
     sodipodi:nodetypes="cc" />
  <text
     xml:space="preserve"
     style="font-size:18px;font-style:normal;font-weight:normal;fill:#000000;fill-opacity:1;stroke:none;font-family:DejaVu Sans;-inkscape-font-specification:DejaVu Sans"
     x="366.80713"
     y="103.57869"
     id="text4727"><tspan
       id="tspan4729"
       x="366.80713"
       y="103.57869"
       style="font-size:18px">U</tspan><tspan
   style="font-size:14px"
   dy="5"
   id="tspan64">4</tspan></text>
  <path
     style="fill:none;stroke:#000000;stroke-width:1.5;stroke-linecap:butt;stroke-linejoin:miter;stroke-miterlimit:4;stroke-opacity:1;stroke-dasharray:none;marker-end:url(#Arrow2Mend)"
     d="m 293.90113,57.083562 c -19.61604,0 -26.56805,0 -44.94923,0"
     id="path4731"
     sodipodi:nodetypes="cc" />
  <text
     xml:space="preserve"
     style="font-size:18px;font-style:normal;font-weight:normal;fill:#000000;fill-opacity:1;stroke:none;font-family:DejaVu Sans;-inkscape-font-specification:DejaVu Sans"
     x="263.41119"
     y="74.218285"
     id="text4733"><tspan
       id="tspan4735"
       x="263.41119"
       y="74.218285"
       style="font-size:18px">U</tspan><tspan
   style="font-size:14px"
   dy="5"
   id="tspan69">3</tspan></text>
  <text
     id="text4737"
     y="87.162445"
     x="14.177679"
     style="font-size:18px;font-style:normal;font-weight:normal;fill:#000000;fill-opacity:1;stroke:none;font-family:DejaVu Sans;-inkscape-font-specification:DejaVu Sans"
     xml:space="preserve"><tspan
       style="font-size:18px"
       y="87.162445"
       x="14.177679"
       id="tspan4739">R</tspan><tspan
   style="font-size:14px"
   dy="5"
   id="tspan73">1</tspan></text>
  <text
     xml:space="preserve"
     style="font-size:18px;font-style:normal;font-weight:normal;fill:#000000;fill-opacity:1;stroke:none;font-family:DejaVu Sans;-inkscape-font-specification:DejaVu Sans"
     x="159.18784"
     y="100.51778"
     id="text4741"><tspan
       id="tspan4743"
       x="159.18784"
       y="100.51778"
       style="font-size:18px">R</tspan><tspan
   style="font-size:14px"
   dy="5"
   id="tspan77">2</tspan></text>
  <text
     id="text4745"
     y="21.888334"
     x="277.36041"
     style="font-size:18px;font-style:normal;font-weight:normal;fill:#000000;fill-opacity:1;stroke:none;font-family:DejaVu Sans;-inkscape-font-specification:DejaVu Sans"
     xml:space="preserve"><tspan
       style="font-size:18px"
       y="18"
       x="277"
       id="tspan4747">R</tspan><tspan
   style="font-size:14px"
   dy="5"
   id="tspan81">3</tspan></text>
  <text
     xml:space="preserve"
     style="font-size:18px;font-style:normal;font-weight:normal;fill:#000000;fill-opacity:1;stroke:none;font-family:DejaVu Sans;-inkscape-font-specification:DejaVu Sans"
     x="315.14215"
     y="65.664986"
     id="text4749"><tspan
       id="tspan4751"
       x="315"
       y="62"
       style="font-size:18px">R</tspan><tspan
   style="font-size:14px"
   dy="5"
   id="tspan85">4</tspan></text>
  <path
     id="path4286-1"
     d="m 191.82233,50.847713 6.34518,13.218274 6.34518,-13.218274 -12.69036,0 z"
     style="fill:#000000;fill-rule:evenodd;stroke:none;stroke-width:0.40000000000000002pt;marker-start:none"
     sodipodi:nodetypes="cccc" />
  <path
     sodipodi:nodetypes="cccc"
     style="fill:#000000;fill-rule:evenodd;stroke:none;stroke-width:0.40000000000000002pt;marker-start:none"
     d="m 172.40609,46.213197 13.21828,-6.34518 -13.21828,-6.34518 0,12.69036 z"
     id="path4775" />
  <path
     id="path4777"
     d="m 225.88326,46.213197 -13.21828,-6.34518 13.21828,-6.34518 0,12.69036 z"
     style="fill:#000000;fill-rule:evenodd;stroke:none;stroke-width:0.40000000000000002pt;marker-start:none"
     sodipodi:nodetypes="cccc" />
  <text
     id="text4779"
     y="25.31473"
     x="149.02539"
     style="font-size:18px;font-style:normal;font-weight:normal;fill:#000000;fill-opacity:1;stroke:none;font-family:DejaVu Sans;-inkscape-font-specification:DejaVu Sans"
     xml:space="preserve"><tspan
       style="font-size:18px"
       y="25.31473"
       x="149.02539"
       id="tspan4781">I</tspan><tspan
   style="font-size:14px"
   dy="5"
   id="tspan92">1</tspan></text>
  <text
     xml:space="preserve"
     style="font-size:18px;font-style:normal;font-weight:normal;fill:#000000;fill-opacity:1;stroke:none;font-family:DejaVu Sans;-inkscape-font-specification:DejaVu Sans"
     x="203.35533"
     y="69.964478"
     id="text4785"><tspan
       id="tspan4787"
       x="203.35533"
       y="69.964478"
       style="font-size:18px">I</tspan><tspan
   style="font-size:14px"
   dy="5"
   id="tspan96">2</tspan></text>
  <text
     id="text4789"
     y="25.705595"
     x="220.16245"
     style="font-size:18px;font-style:normal;font-weight:normal;fill:#000000;fill-opacity:1;stroke:none;font-family:DejaVu Sans;-inkscape-font-specification:DejaVu Sans"
     xml:space="preserve"><tspan
       style="font-size:18px"
       y="25.705595"
       x="220.16245"
       id="tspan4791">I</tspan><tspan
   style="font-size:14px"
   dy="5"
   id="tspan100">3</tspan></text>
</svg>
