\relax 
\providecommand\hyper@newdestlabel[2]{}
\providecommand\HyperFirstAtBeginDocument{\AtBeginDocument}
\HyperFirstAtBeginDocument{\ifx\hyper@anchor\@undefined
\global\let\oldcontentsline\contentsline
\gdef\contentsline#1#2#3#4{\oldcontentsline{#1}{#2}{#3}}
\global\let\oldnewlabel\newlabel
\gdef\newlabel#1#2{\newlabelxx{#1}#2}
\gdef\newlabelxx#1#2#3#4#5#6{\oldnewlabel{#1}{{#2}{#3}}}
\AtEndDocument{\ifx\hyper@anchor\@undefined
\let\contentsline\oldcontentsline
\let\newlabel\oldnewlabel
\fi}
\fi}
\global\let\hyper@last\relax 
\gdef\HyperFirstAtBeginDocument#1{#1}
\providecommand\HyField@AuxAddToFields[1]{}
\providecommand\HyField@AuxAddToCoFields[2]{}
\select@language{english}
\@writefile{toc}{\select@language{english}}
\@writefile{lof}{\select@language{english}}
\@writefile{lot}{\select@language{english}}
\@writefile{nav}{\headcommand {\slideentry {0}{0}{1}{1/1}{}{0}}}
\@writefile{nav}{\headcommand {\beamer@framepages {1}{1}}}
\newlabel{sec:org3e2edb8<1>}{{2}{2}{}{Doc-Start}{}}
\@writefile{snm}{\beamer@slide {sec:org3e2edb8<1>}{2}}
\newlabel{sec:org3e2edb8}{{2}{2}{}{Doc-Start}{}}
\@writefile{snm}{\beamer@slide {sec:org3e2edb8}{2}}
\newlabel{sec:org3e2edb8<2>}{{2}{3}{}{Doc-Start}{}}
\@writefile{snm}{\beamer@slide {sec:org3e2edb8<2>}{3}}
\newlabel{sec:org3e2edb8<3>}{{2}{4}{}{Doc-Start}{}}
\@writefile{snm}{\beamer@slide {sec:org3e2edb8<3>}{4}}
\newlabel{sec:org3e2edb8<4>}{{2}{5}{}{Doc-Start}{}}
\@writefile{snm}{\beamer@slide {sec:org3e2edb8<4>}{5}}
\newlabel{sec:org3e2edb8<5>}{{2}{6}{}{Doc-Start}{}}
\@writefile{snm}{\beamer@slide {sec:org3e2edb8<5>}{6}}
\newlabel{sec:org3e2edb8<6>}{{2}{7}{}{Doc-Start}{}}
\@writefile{snm}{\beamer@slide {sec:org3e2edb8<6>}{7}}
\newlabel{sec:org3e2edb8<7>}{{2}{8}{}{Doc-Start}{}}
\@writefile{snm}{\beamer@slide {sec:org3e2edb8<7>}{8}}
\@writefile{nav}{\headcommand {\slideentry {0}{0}{2}{2/8}{}{0}}}
\@writefile{nav}{\headcommand {\beamer@framepages {2}{8}}}
\citation{murata_chip_2017}
\citation{murata_chip_2017}
\citation{murata_chip_2017}
\citation{murata_chip_2017}
\citation{murata_chip_2017}
\citation{murata_chip_2017}
\citation{murata_chip_2017}
\newlabel{sec:org0f3bfba<1>}{{3}{9}{}{Doc-Start}{}}
\@writefile{snm}{\beamer@slide {sec:org0f3bfba<1>}{9}}
\newlabel{sec:org0f3bfba}{{3}{9}{}{Doc-Start}{}}
\@writefile{snm}{\beamer@slide {sec:org0f3bfba}{9}}
\newlabel{fig:orgb771170}{{1}{9}{}{Doc-Start}{}}
\@writefile{snm}{\beamer@slide {fig:orgb771170}{9}}
\newlabel{fig-prinzipaufbaukeramikkondensator}{{2}{9}{}{Doc-Start}{}}
\@writefile{snm}{\beamer@slide {fig-prinzipaufbaukeramikkondensator}{9}}
\citation{murata_chip_2017}
\citation{murata_chip_2017}
\citation{murata_chip_2017}
\citation{murata_chip_2017}
\citation{murata_chip_2017}
\citation{murata_chip_2017}
\citation{murata_chip_2017}
\newlabel{sec:org0f3bfba<2>}{{3}{10}{}{Doc-Start}{}}
\@writefile{snm}{\beamer@slide {sec:org0f3bfba<2>}{10}}
\citation{murata_chip_2017}
\citation{murata_chip_2017}
\citation{murata_chip_2017}
\citation{murata_chip_2017}
\citation{murata_chip_2017}
\citation{murata_chip_2017}
\citation{murata_chip_2017}
\newlabel{sec:org0f3bfba<3>}{{3}{11}{}{Doc-Start}{}}
\@writefile{snm}{\beamer@slide {sec:org0f3bfba<3>}{11}}
\citation{murata_chip_2017}
\citation{murata_chip_2017}
\citation{murata_chip_2017}
\citation{murata_chip_2017}
\citation{murata_chip_2017}
\citation{murata_chip_2017}
\citation{murata_chip_2017}
\newlabel{sec:org0f3bfba<4>}{{3}{12}{}{Doc-Start}{}}
\@writefile{snm}{\beamer@slide {sec:org0f3bfba<4>}{12}}
\citation{murata_chip_2017}
\citation{murata_chip_2017}
\citation{murata_chip_2017}
\citation{murata_chip_2017}
\citation{murata_chip_2017}
\citation{murata_chip_2017}
\citation{murata_chip_2017}
\newlabel{sec:org0f3bfba<5>}{{3}{13}{}{Doc-Start}{}}
\@writefile{snm}{\beamer@slide {sec:org0f3bfba<5>}{13}}
\citation{murata_chip_2017}
\citation{murata_chip_2017}
\citation{murata_chip_2017}
\citation{murata_chip_2017}
\citation{murata_chip_2017}
\citation{murata_chip_2017}
\citation{murata_chip_2017}
\newlabel{sec:org0f3bfba<6>}{{3}{14}{}{Doc-Start}{}}
\@writefile{snm}{\beamer@slide {sec:org0f3bfba<6>}{14}}
\@writefile{nav}{\headcommand {\slideentry {0}{0}{3}{9/14}{}{0}}}
\@writefile{nav}{\headcommand {\beamer@framepages {9}{14}}}
